<?xml version="1.0" encoding="UTF-8"?>
<svg width="40px" height="63px" viewBox="0 0 40 63" version="1.1" xmlns="http://www.w3.org/2000/svg" xmlns:xlink="http://www.w3.org/1999/xlink">
    <!-- Generator: Sketch 53 (72520) - https://sketchapp.com -->
    <title>Group 3</title>
    <desc>Created with Sketch.</desc>
    <defs>
        <polygon id="path-1" points="0 0 40 0 40 63 0 63"></polygon>
    </defs>
    <g id="web" stroke="none" stroke-width="1" fill="none" fill-rule="evenodd">
        <g id="1_1_HOMEPAGE" transform="translate(-177.000000, -1378.000000)">
            <g id="Group-3" transform="translate(177.000000, 1378.000000)">
                <mask id="mask-2" fill="white">
                    <use xlink:href="#path-1"></use>
                </mask>
                <g id="Clip-2"></g>
                <path d="M38.1675747,42.9382566 C38.1675747,52.9871226 30.0180342,61.162283 19.9998092,61.162283 C9.9823475,61.162283 1.83242526,52.9871226 1.83242526,42.9382566 L1.83242526,36.2968241 C2.63432601,36.923945 3.63927825,37.3010598 4.73277927,37.3010598 C6.30070324,37.3010598 7.68809458,36.5299844 8.54953674,35.3492513 C9.41136058,36.5299844 10.7995153,37.3010598 12.3662942,37.3010598 C13.9342182,37.3010598 15.3216095,36.5299844 16.1830517,35.3492513 C17.0448755,36.5299844 18.4330302,37.3010598 19.9998092,37.3010598 C22.6097079,37.3010598 24.7329701,35.1716053 24.7329701,32.5536244 L24.7329701,26.3298896 L24.7329701,20.3167266 L24.7329701,4.74743546 C24.7329701,3.14287885 26.0344844,1.83771695 27.6333241,1.83771695 C29.2333088,1.83771695 30.5340598,3.14287885 30.5340598,4.74743546 L30.5340598,26.2456609 C30.5340598,26.3000267 30.5416933,26.3528611 30.5504718,26.4045469 C30.54093,26.5963586 30.5340598,26.788936 30.5340598,26.982662 L30.5340598,36.0671095 C25.1211343,36.3458299 20.0543888,39.0759881 16.8414424,43.4964631 C16.5433536,43.9065037 16.6326657,44.4811731 17.0410588,44.780185 C17.204416,44.8992537 17.3929638,44.9562995 17.5803666,44.9562995 C17.86357,44.9562995 18.1421933,44.8257451 18.3211992,44.5791847 C21.3715518,40.3826815 26.2799019,37.8772607 31.4500816,37.8772607 C31.9565653,37.8772607 32.3664851,37.4660715 32.3664851,36.9584022 L32.3664851,26.982662 C32.3664851,24.8398075 33.0993025,22.7861588 34.2786805,21.6230371 C35.02562,20.8864189 35.9206496,20.5250012 36.958426,20.5395498 C37.4103301,20.547207 38.1675747,20.6781443 38.1675747,21.4687454 L38.1675747,34.639816 C38.1675747,34.7324675 38.1855135,34.820142 38.2107041,34.9047535 L38.1675747,34.9177707 L38.1675747,42.9382566 Z M1.83242526,22.1544436 C1.83242526,20.549887 3.13393956,19.2447251 4.73277927,19.2447251 C6.332764,19.2447251 7.63351495,20.549887 7.63351495,22.1544436 L7.63351495,32.5536244 C7.63351495,34.158181 6.332764,35.4637258 4.73277927,35.4637258 C3.13393956,35.4637258 1.83242526,34.158181 1.83242526,32.5536244 L1.83242526,22.1544436 Z M9.46594021,21.2355851 C9.46594021,19.6310285 10.7674545,18.3258666 12.3662942,18.3258666 C13.9662789,18.3258666 15.2670299,19.6310285 15.2670299,21.2355851 L15.2670299,32.5536244 C15.2670299,34.158181 13.9662789,35.4637258 12.3662942,35.4637258 C10.7674545,35.4637258 9.46594021,34.158181 9.46594021,32.5536244 L9.46594021,22.1544436 L9.46594021,21.2355851 Z M17.0994552,20.3167266 C17.0994552,18.71217 18.4009695,17.4070081 19.9998092,17.4070081 C21.5997939,17.4070081 22.9005448,18.71217 22.9005448,20.3167266 L22.9005448,32.5536244 C22.9005448,34.158181 21.5997939,35.4637258 19.9998092,35.4637258 C18.4009695,35.4637258 17.0994552,34.158181 17.0994552,32.5536244 L17.0994552,21.2355851 L17.0994552,20.3167266 Z M36.9897234,18.7022157 C35.4817225,18.6792443 34.0882243,19.2328565 32.99396,20.3125152 C32.7710613,20.5326584 32.5622847,20.7750073 32.3664851,21.0338191 L32.3664851,4.74743546 C32.3664851,2.12983738 30.2432229,0 27.6333241,0 C25.0234253,0 22.9005448,2.12983738 22.9005448,4.74743546 L22.9005448,16.5735269 C22.0982624,15.9467889 21.0936919,15.5692912 19.9998092,15.5692912 C18.2147117,15.5692912 16.658238,16.5666355 15.8513755,18.0348947 C14.9861165,17.0873219 13.7464337,16.4881496 12.3662942,16.4881496 C10.5811967,16.4881496 9.02472305,17.4858768 8.21786052,18.9537532 C7.3526016,18.0057976 6.11291877,17.4070081 4.73277927,17.4070081 C2.12288051,17.4070081 0,19.5364626 0,22.1544436 L0,26.2456609 L0,32.5536244 L0,42.9382566 C0,54.0001641 8.97243347,63 19.9998092,63 C31.0283299,63 40,54.0001641 40,42.9382566 L40,34.639816 L40,26.2456609 L40,21.4687454 C40,19.8699317 38.7618439,18.7320786 36.9897234,18.7022157 L36.9897234,18.7022157 Z" id="Fill-1" fill="#065574" mask="url(#mask-2)"></path>
            </g>
        </g>
    </g>
</svg>