<?xml version="1.0" encoding="UTF-8"?>
<svg width="42px" height="64px" viewBox="0 0 42 64" version="1.1" xmlns="http://www.w3.org/2000/svg" xmlns:xlink="http://www.w3.org/1999/xlink">
    <!-- Generator: Sketch 53 (72520) - https://sketchapp.com -->
    <title>Fill 1</title>
    <desc>Created with Sketch.</desc>
    <g id="web" stroke="none" stroke-width="1" fill="none" fill-rule="evenodd">
        <g id="1_1_HOMEPAGE" transform="translate(-775.000000, -1378.000000)" fill="#065574">
            <path d="M815.274543,1422.80048 C815.274543,1433.39539 808.728951,1440.24163 798.599082,1440.24163 C789.592558,1440.24163 783.416142,1434.47994 782.480441,1425.20555 C781.819735,1418.65279 777.08084,1406.75458 776.785715,1406.01885 C776.696566,1405.75724 776.706991,1405.50955 776.816989,1405.30033 C776.936333,1405.07426 777.164956,1404.90865 777.461878,1404.83536 C777.876707,1404.73204 778.286503,1404.67928 778.678325,1404.67928 C780.833708,1404.67928 782.707626,1406.33176 783.691136,1409.09883 L785.589498,1414.44209 C785.897924,1415.31083 786.291184,1416.11435 787.071234,1416.11435 L787.071594,1416.11435 C788.242747,1416.11399 788.242747,1414.55457 788.242747,1413.9676 L788.242747,1407.10084 L788.175526,1407.07226 C788.218303,1406.96783 788.242747,1406.85351 788.242747,1406.73297 L788.242747,1386.15833 C788.242747,1384.6231 789.468181,1383.37367 790.97472,1383.37367 C792.4809,1383.37367 793.706694,1384.6231 793.706694,1386.15833 L793.706694,1412.86252 C793.706694,1413.34837 794.092765,1413.74189 794.569422,1413.74189 C795.04572,1413.74189 795.43215,1413.34837 795.43215,1412.86252 L795.43215,1386.15833 L795.43215,1382.54303 C795.43215,1381.0078 796.657584,1379.75837 798.163764,1379.75837 C799.670663,1379.75837 800.895737,1381.0078 800.895737,1382.54303 L800.895737,1402.03055 L800.895737,1412.86252 C800.895737,1413.34837 801.282168,1413.74189 801.758466,1413.74189 C802.235482,1413.74189 802.621553,1413.34837 802.621553,1412.86252 L802.621553,1402.03055 C802.621553,1400.49532 803.847347,1399.24625 805.353527,1399.24625 C806.859706,1399.24625 808.08514,1400.49532 808.08514,1402.03055 L808.08514,1402.91028 L808.08514,1412.86252 C808.08514,1413.34837 808.471211,1413.74189 808.947509,1413.74189 C809.424526,1413.74189 809.810597,1413.34837 809.810597,1412.86252 L809.810597,1402.91028 C809.810597,1401.37432 811.036031,1400.12525 812.542211,1400.12525 C814.04875,1400.12525 815.274543,1401.37432 815.274543,1402.91028 L815.274543,1412.86252 L815.274543,1422.80048 Z M812.542211,1398.36652 C811.243086,1398.36652 810.075167,1398.93994 809.260248,1399.84679 C808.501047,1398.442 807.034768,1397.48715 805.353527,1397.48715 C804.323645,1397.48715 803.3768,1397.84842 802.621553,1398.44859 L802.621553,1382.54303 C802.621553,1380.03793 800.621821,1378 798.163764,1378 C795.705707,1378 793.706694,1380.03793 793.706694,1382.54303 L793.706694,1382.57051 C792.951447,1381.97181 792.003524,1381.6153 790.97472,1381.6153 C788.516664,1381.6153 786.517291,1383.65287 786.517291,1386.15833 L786.517291,1386.2514 L786.517291,1406.73297 L786.517291,1411.88826 L785.313066,1408.50013 C784.071815,1405.00684 781.591471,1402.92054 778.678325,1402.92054 C778.149185,1402.92054 777.602071,1402.99016 777.052801,1403.12646 C776.273829,1403.31992 775.650148,1403.79698 775.29643,1404.47006 C774.951338,1405.12592 774.906045,1405.89354 775.168458,1406.63257 C775.172413,1406.64393 775.176726,1406.65529 775.18104,1406.66628 C775.230647,1406.78903 780.121598,1419.01773 780.763971,1425.38545 C781.78199,1435.47876 788.783031,1442 798.599082,1442 C804.284822,1442 809.028749,1440.04451 812.317901,1436.34567 C815.337091,1432.94948 817,1428.13934 817,1422.80048 L817,1412.86252 L817,1406.8253 L817,1402.91028 C817,1400.40482 815.000268,1398.36652 812.542211,1398.36652 L812.542211,1398.36652 Z" id="Fill-1"></path>
        </g>
    </g>
</svg>