{
  "extends": [
    "tslint:recommended",
    "tslint-react",
    "tslint-config-prettier",
    "tslint-config-airbnb"
  ],
  "rules": {
    "variable-name": false,
    "import-name": false,
    "interface-name": false,
    "object-literal-sort-keys": false,
    "jsx-boolean-value": false,
    "ter-arrow-parens": false,
    "semicolon": [true, "always", "ignore-bound-class-methods"],
    "member-ordering": false,
    "member-access": false,
    "ordered-imports": false,
    "align": false,
    "jsx-no-lambda": false
  }
}
